DownloadObjects • GEfetch2R
…
Summary attributes

GEfetch2R provides StatDBAttribute to
summary attributes of CELLxGENE:

StatDBAttribute(
  df = all.cellxgene.datasets, filter = c("organism", "sex", "disease"),
  database = "CELLxGENE", combine = TRUE
)

## # A tibble: 343 × 4
## # Groups:   organism, sex [18]
##    organism     sex     disease    Num
##    <chr>        <chr>   <chr>    <int>
##  1 homo sapiens male    normal     856
##  2 homo sapiens female  normal     691
##  3 mus musculus male    normal     191
##  4 homo sapiens unknown normal     146
##  5 mus musculus female  normal     143
##  6 mus musculus unknown normal     123
##  7 homo sapiens female  covid-19    50
##  8 homo sapiens female  dementia    50
##  9 homo sapiens male    dementia    50
## 10 homo sapiens male    covid-19    42
## # ℹ 333 more rows
…
