DownloadMatrices • GEfetch2R
…
Summary attributes

GEfetch2R provides StatDBAttribute to
summary attributes of UCSC Cell
Browser:

StatDBAttribute(
  df = ucsc.cb.samples, filter = c("organism", "organ"),
  database = "UCSC", combine = TRUE
)

## # A tibble: 301 × 3
## # Groups:   organisms [29]
##    organisms           body_parts        Num
##    <chr>               <chr>           <int>
##  1 human (h. sapiens)  brain             171
##  2 human (h. sapiens)  eye               111
##  3 human (h. sapiens)  retina            109
##  4 mouse (m. musculus) brain              96
##  5 human (h. sapiens)  lung               63
##  6 human (h. sapiens)  muscle             46
##  7 human (h. sapiens)  skeletal muscle    40
##  8 human (h. sapiens)  cortex             38
##  9 human (h. sapiens)  blood              34
## 10 human (h. sapiens)  heart              32
## # ℹ 291 more rows
…
